Date
2017-01-05 16:02:14    2.890000
2017-01-05 16:02:54    2.731125
2017-01-05 16:03:07    2.552219
2017-01-05 16:03:14    2.378210
2017-01-05 16:03:44    2.219178
2017-01-05 16:03:54    2.159088
2017-01-05 16:04:04    2.090342
2017-01-05 16:04:14    1.970515
2017-01-05 16:04:24    1.852817
2017-01-05 16:04:37    1.746398
2017-01-05 16:04:44    1.649285
2017-01-05 16:04:54    1.513713
2017-01-05 16:05:04    1.416382
2017-01-05 16:05:14    1.337834
2017-01-05 16:05:27    1.227908
dtype: float64